%YAML 1.1
%TAG !u! tag:unity3d.com,2011:
--- !u!78 &1
TagManager:
  serializedVersion: 2
  tags:
  - Seat
  - Passenger
  - Street
  layers:
  - Default
  - TransparentFX
  - Ignore Raycast
  - 
  - Water
  - UI
  - 
  - 
  - Street
  - particels
  - 
  - 
  - 
  - 
  - 
  - 
  - 
  - 
  - 
  - 
  - 
  - 
  - 
  - 
  - 
  - 
  - 
  - 
  - 
  - 
  - 
  - 
  m_SortingLayers:
  - name: Default
    uniqueID: 0
    locked: 0
  - name: Particels
    uniqueID: 2098395185
    locked: 0
